{
  "version": 2,
  "projects": {
    "demo": "packages/demo",
    "demo-e2e": "packages/demo-e2e",
    "demo1": "packages/demo1",
    "demo1-e2e": "packages/demo1-e2e",
    "demo10": "packages/demo10",
    "demo10-e2e": "packages/demo10-e2e",
    "demo2": "packages/demo2",
    "demo2-e2e": "packages/demo2-e2e",
    "demo3": "packages/demo3",
    "demo3-e2e": "packages/demo3-e2e",
    "demo4": "packages/demo4",
    "demo4-e2e": "packages/demo4-e2e",
    "demo5": "packages/demo5",
    "demo5-e2e": "packages/demo5-e2e",
    "demo6": "packages/demo6",
    "demo6-e2e": "packages/demo6-e2e",
    "demo7": "packages/demo7",
    "demo7-e2e": "packages/demo7-e2e",
    "demo8": "packages/demo8",
    "demo8-e2e": "packages/demo8-e2e",
    "demo9": "packages/demo9",
    "demo9-e2e": "packages/demo9-e2e",
    "some-long-name-for-this-library-number-filler-filler-filler02": "packages/some-long-name-for-this-library-number-filler-filler-filler02",
    "some-long-name-for-this-library-number-filler-filler-filler03": "packages/some-long-name-for-this-library-number-filler-filler-filler03",
    "some-long-name-for-this-library-number-filler-filler-filler04": "packages/some-long-name-for-this-library-number-filler-filler-filler04",
    "some-long-name-for-this-library-number-filler-filler-filler05": "packages/some-long-name-for-this-library-number-filler-filler-filler05",
    "some-long-name-for-this-library-number-filler-filler-filler06": "packages/some-long-name-for-this-library-number-filler-filler-filler06",
    "some-long-name-for-this-library-number-filler-filler-filler07": "packages/some-long-name-for-this-library-number-filler-filler-filler07",
    "some-long-name-for-this-library-number-filler-filler-filler08": "packages/some-long-name-for-this-library-number-filler-filler-filler08",
    "some-long-name-for-this-library-number-filler-filler-filler09": "packages/some-long-name-for-this-library-number-filler-filler-filler09",
    "some-long-name-for-this-library-number-filler-filler-filler10": "packages/some-long-name-for-this-library-number-filler-filler-filler10",
    "some-long-name-for-this-library-number-filler-filler-filler11": "packages/some-long-name-for-this-library-number-filler-filler-filler11",
    "some-long-name-for-this-library-number-filler-filler-filler12": "packages/some-long-name-for-this-library-number-filler-filler-filler12",
    "some-long-name-for-this-library-number-filler-filler-filler13": "packages/some-long-name-for-this-library-number-filler-filler-filler13",
    "some-long-name-for-this-library-number-filler-filler-filler14": "packages/some-long-name-for-this-library-number-filler-filler-filler14",
    "some-long-name-for-this-library-number-filler-filler-filler15": "packages/some-long-name-for-this-library-number-filler-filler-filler15",
    "some-long-name-for-this-library-number-filler-filler-filler16": "packages/some-long-name-for-this-library-number-filler-filler-filler16",
    "some-long-name-for-this-library-number-filler-filler-filler17": "packages/some-long-name-for-this-library-number-filler-filler-filler17",
    "some-long-name-for-this-library-number-filler-filler-filler18": "packages/some-long-name-for-this-library-number-filler-filler-filler18",
    "some-long-name-for-this-library-number-filler-filler-filler19": "packages/some-long-name-for-this-library-number-filler-filler-filler19",
    "some-long-name-for-this-library-number-filler-filler-filler20": "packages/some-long-name-for-this-library-number-filler-filler-filler20",
    "some-long-name-for-this-library-number-filler-filler-filler21": "packages/some-long-name-for-this-library-number-filler-filler-filler21",
    "some-long-name-for-this-library-number-filler-filler-filler22": "packages/some-long-name-for-this-library-number-filler-filler-filler22",
    "some-long-name-for-this-library-number-filler-filler-filler23": "packages/some-long-name-for-this-library-number-filler-filler-filler23",
    "some-long-name-for-this-library-number-filler-filler-filler24": "packages/some-long-name-for-this-library-number-filler-filler-filler24",
    "some-long-name-for-this-library-number-filler-filler-filler25": "packages/some-long-name-for-this-library-number-filler-filler-filler25",
    "some-long-name-for-this-library-number-filler-filler-filler26": "packages/some-long-name-for-this-library-number-filler-filler-filler26",
    "some-long-name-for-this-library-number-filler-filler-filler27": "packages/some-long-name-for-this-library-number-filler-filler-filler27",
    "some-long-name-for-this-library-number-filler-filler-filler28": "packages/some-long-name-for-this-library-number-filler-filler-filler28",
    "some-long-name-for-this-library-number-filler-filler-filler29": "packages/some-long-name-for-this-library-number-filler-filler-filler29",
    "some-long-name-for-this-library-number-filler-filler-filler30": "packages/some-long-name-for-this-library-number-filler-filler-filler30",
    "some-long-name-for-this-library-number-filler-filler-filler31": "packages/some-long-name-for-this-library-number-filler-filler-filler31",
    "some-long-name-for-this-library-number-filler-filler-filler32": "packages/some-long-name-for-this-library-number-filler-filler-filler32",
    "some-long-name-for-this-library-number-filler-filler-filler33": "packages/some-long-name-for-this-library-number-filler-filler-filler33",
    "some-long-name-for-this-library-number-filler-filler-filler34": "packages/some-long-name-for-this-library-number-filler-filler-filler34",
    "some-long-name-for-this-library-number-filler-filler-filler35": "packages/some-long-name-for-this-library-number-filler-filler-filler35",
    "some-long-name-for-this-library-number-filler-filler-filler36": "packages/some-long-name-for-this-library-number-filler-filler-filler36",
    "some-long-name-for-this-library-number-filler-filler-filler37": "packages/some-long-name-for-this-library-number-filler-filler-filler37",
    "some-long-name-for-this-library-number-filler-filler-filler38": "packages/some-long-name-for-this-library-number-filler-filler-filler38",
    "some-long-name-for-this-library-number-filler-filler-filler39": "packages/some-long-name-for-this-library-number-filler-filler-filler39",
    "some-long-name-for-this-library-number-filler-filler-filler40": "packages/some-long-name-for-this-library-number-filler-filler-filler40",
    "some-long-name-for-this-library-number-filler-filler-filler41": "packages/some-long-name-for-this-library-number-filler-filler-filler41",
    "some-long-name-for-this-library-number-filler-filler-filler42": "packages/some-long-name-for-this-library-number-filler-filler-filler42",
    "some-long-name-for-this-library-number-filler-filler-filler43": "packages/some-long-name-for-this-library-number-filler-filler-filler43",
    "some-long-name-for-this-library-number-filler-filler-filler44": "packages/some-long-name-for-this-library-number-filler-filler-filler44",
    "some-long-name-for-this-library-number-filler-filler-filler45": "packages/some-long-name-for-this-library-number-filler-filler-filler45",
    "some-long-name-for-this-library-number-filler-filler-filler46": "packages/some-long-name-for-this-library-number-filler-filler-filler46",
    "some-long-name-for-this-library-number-filler-filler-filler47": "packages/some-long-name-for-this-library-number-filler-filler-filler47",
    "some-long-name-for-this-library-number-filler-filler-filler48": "packages/some-long-name-for-this-library-number-filler-filler-filler48",
    "some-long-name-for-this-library-number-filler-filler-filler49": "packages/some-long-name-for-this-library-number-filler-filler-filler49",
    "some-long-name-for-this-library-number-filler-filler-filler50": "packages/some-long-name-for-this-library-number-filler-filler-filler50",
    "some-long-name-for-this-library-number-filler-filler-filler51": "packages/some-long-name-for-this-library-number-filler-filler-filler51",
    "some-long-name-for-this-library-number-filler-filler-filler52": "packages/some-long-name-for-this-library-number-filler-filler-filler52",
    "some-long-name-for-this-library-number-filler-filler-filler53": "packages/some-long-name-for-this-library-number-filler-filler-filler53",
    "some-long-name-for-this-library-number-filler-filler-filler54": "packages/some-long-name-for-this-library-number-filler-filler-filler54",
    "some-long-name-for-this-library-number-filler-filler-filler55": "packages/some-long-name-for-this-library-number-filler-filler-filler55",
    "some-long-name-for-this-library-number-filler-filler-filler56": "packages/some-long-name-for-this-library-number-filler-filler-filler56",
    "some-long-name-for-this-library-number-filler-filler-filler57": "packages/some-long-name-for-this-library-number-filler-filler-filler57",
    "some-long-name-for-this-library-number-filler-filler-filler58": "packages/some-long-name-for-this-library-number-filler-filler-filler58",
    "some-long-name-for-this-library-number-filler-filler-filler59": "packages/some-long-name-for-this-library-number-filler-filler-filler59",
    "some-long-name-for-this-library-number-filler-filler-filler60": "packages/some-long-name-for-this-library-number-filler-filler-filler60",
    "some-long-name-for-this-library-number-filler-filler-filler61": "packages/some-long-name-for-this-library-number-filler-filler-filler61",
    "some-long-name-for-this-library-number-filler-filler-filler62": "packages/some-long-name-for-this-library-number-filler-filler-filler62",
    "some-long-name-for-this-library-number-filler-filler-filler63": "packages/some-long-name-for-this-library-number-filler-filler-filler63",
    "some-long-name-for-this-library-number-filler-filler-filler64": "packages/some-long-name-for-this-library-number-filler-filler-filler64",
    "some-long-name-for-this-library-number-filler-filler-filler65": "packages/some-long-name-for-this-library-number-filler-filler-filler65",
    "some-long-name-for-this-library-number-filler-filler-filler66": "packages/some-long-name-for-this-library-number-filler-filler-filler66",
    "some-long-name-for-this-library-number-filler-filler-filler67": "packages/some-long-name-for-this-library-number-filler-filler-filler67",
    "some-long-name-for-this-library-number-filler-filler-filler68": "packages/some-long-name-for-this-library-number-filler-filler-filler68",
    "some-long-name-for-this-library-number-filler-filler-filler69": "packages/some-long-name-for-this-library-number-filler-filler-filler69",
    "some-long-name-for-this-library-number-filler-filler-filler70": "packages/some-long-name-for-this-library-number-filler-filler-filler70",
    "some-long-name-for-this-library-number-filler-filler-filler71": "packages/some-long-name-for-this-library-number-filler-filler-filler71",
    "some-long-name-for-this-library-number-filler-filler-filler72": "packages/some-long-name-for-this-library-number-filler-filler-filler72",
    "some-long-name-for-this-library-number-filler-filler-filler73": "packages/some-long-name-for-this-library-number-filler-filler-filler73",
    "some-long-name-for-this-library-number-filler-filler-filler74": "packages/some-long-name-for-this-library-number-filler-filler-filler74",
    "some-long-name-for-this-library-number-filler-filler-filler75": "packages/some-long-name-for-this-library-number-filler-filler-filler75",
    "some-long-name-for-this-library-number-filler-filler-filler76": "packages/some-long-name-for-this-library-number-filler-filler-filler76",
    "some-long-name-for-this-library-number-filler-filler-filler77": "packages/some-long-name-for-this-library-number-filler-filler-filler77",
    "some-long-name-for-this-library-number-filler-filler-filler78": "packages/some-long-name-for-this-library-number-filler-filler-filler78",
    "some-long-name-for-this-library-number-filler-filler-filler79": "packages/some-long-name-for-this-library-number-filler-filler-filler79"
  }
}
