{
  "root": "packages/some-long-name-for-this-library-number-filler-filler-filler74",
  "sourceRoot": "packages/some-long-name-for-this-library-number-filler-filler-filler74/src",
  "projectType": "library",
  "tags": [],
  "targets": {
    "lint": {
      "executor": "@nrwl/linter:eslint",
      "outputs": ["{options.outputFile}"],
      "options": {
        "lintFilePatterns": [
          "packages/some-long-name-for-this-library-number-filler-filler-filler74/**/*.{ts,tsx,js,jsx}"
        ]
      }
    },
    "test": {
      "executor": "@nrwl/jest:jest",
      "outputs": [
        "coverage/packages/some-long-name-for-this-library-number-filler-filler-filler74"
      ],
      "options": {
        "jestConfig": "packages/some-long-name-for-this-library-number-filler-filler-filler74/jest.config.js",
        "passWithNoTests": true
      }
    }
  }
}
